PS E:\Новая папка\Laba3> git clone https://gitlab.com/ZeerDaan/laba1.git
Cloning into 'laba1'...
remote: Enumerating objects: 6, done.
remote: Counting objects: 100% (6/6), done.
remote: Compressing objects: 100% (5/5), done.
remote: Total 6 (delta 0), reused 0 (delta 0), pack-reused 0
Receiving objects: 100% (6/6), 35.39 KiB | 4.42 MiB/s, done.
PS E:\Новая папка\Laba3> cd laba1
PS E:\Новая папка\Laba3\laba1> dir


    Каталог: E:\Новая папка\Laba3\laba1


Mode                 LastWriteTime         Length Name
----                 -------------         ------ ----
d-----        04.07.2021     14:54                logs
-a----        04.07.2021     14:54             13 .gitignore.txt
-a----        04.07.2021     14:35            304 Lab1.txt
-a----        04.07.2021     14:35          41888 noname.png


PS E:\Новая папка\Laba3\laba1> rename .gitignore.txt .gitignore
rename : Имя "rename" не распознано как имя командлета, функции, файла сценария или выполняемой программы. Проверьте пр
авильность написания имени, а также наличие и правильность пути, после чего повторите попытку.
строка:1 знак:1
+ rename .gitignore.txt .gitignore
+ ~~~~~~
    + CategoryInfo          : ObjectNotFound: (rename:String) [], CommandNotFoundException
    + FullyQualifiedErrorId : CommandNotFoundException

PS E:\Новая папка\Laba3\laba1> ren .gitignore.txt .gitignore
PS E:\Новая папка\Laba3\laba1> git add --all
PS E:\Новая папка\Laba3\laba1> git commit -m "1"
[master c9f7903] 1
 3 files changed, 1 insertion(+)
 create mode 100644 .gitignore
 create mode 100644 logs/log1.txt
 create mode 100644 logs/log3.txt
PS E:\Новая папка\Laba3\laba1> git branch "bulat"
PS E:\Новая папка\Laba3\laba1> git checkout "bulat"
Switched to branch 'bulat'
PS E:\Новая папка\Laba3\laba1> dir


    Каталог: E:\Новая папка\Laba3\laba1


Mode                 LastWriteTime         Length Name
----                 -------------         ------ ----
d-----        04.07.2021     14:54                logs
-a----        04.07.2021     14:54             13 .gitignore
-a----        04.07.2021     14:35            304 Lab1.txt
-a----        04.07.2021     14:35          41888 noname.png
-a----        04.07.2021     14:57             57 README.md.txt


PS E:\Новая папка\Laba3\laba1> ren README.md.txt README.md
PS E:\Новая папка\Laba3\laba1> git add --all
PS E:\Новая папка\Laba3\laba1> git commit "2"
error: pathspec '2' did not match any file(s) known to git
PS E:\Новая папка\Laba3\laba1> git commit -m "2"
[bulat d13861c] 2
 1 file changed, 3 insertions(+)
 create mode 100644 README.md
PS E:\Новая папка\Laba3\laba1> git commit --amend "upd"
error: pathspec 'upd' did not match any file(s) known to git
PS E:\Новая папка\Laba3\laba1> git commit --amend -m "upd"
[bulat babb457] upd
 Date: Sun Jul 4 14:59:18 2021 +0400
 1 file changed, 3 insertions(+)
 create mode 100644 README.md